<svg xmlns="http://www.w3.org/2000/svg" width="331.122" height="213" viewBox="0 0 331.122 213">
  <g id="inline-alert" transform="translate(-1279.878 -397)">
    <path id="Path_172" data-name="Path 172" d="M0,0H331V213H0Z" transform="translate(1280 397)" fill="#484848"/>
    <rect id="Rectangle_636" data-name="Rectangle 636" width="242.24" height="5.532" transform="translate(1361.188 486.313)" fill="#071b2a"/>
    <rect id="Rectangle_637" data-name="Rectangle 637" width="242.24" height="5.532" transform="translate(1361.188 497.39)" fill="#071b2a"/>
    <rect id="Rectangle_638" data-name="Rectangle 638" width="128.444" height="5.532" transform="translate(1361.188 438.302)" fill="#071b2a"/>
    <path id="Path_167" data-name="Path 167" d="M0,0H74.7V47.605H0Z" transform="translate(1361.188 513.484)" fill="#071b2a"/>
    <rect id="Rectangle_640" data-name="Rectangle 640" width="74.698" height="47.605" transform="translate(1444.959 513.484)" fill="#071b2a"/>
    <rect id="Rectangle_641" data-name="Rectangle 641" width="74.698" height="47.605" transform="translate(1528.73 513.484)" fill="#071b2a"/>
    <rect id="Rectangle_642" data-name="Rectangle 642" width="74.698" height="6.226" transform="translate(1361.188 567.998)" fill="#071b2a"/>
    <rect id="Rectangle_643" data-name="Rectangle 643" width="74.698" height="6.226" transform="translate(1361.188 581.2)" fill="#071b2a"/>
    <rect id="Rectangle_644" data-name="Rectangle 644" width="32.784" height="6.226" transform="translate(1361.188 593.574)" fill="#071b2a"/>
    <rect id="Rectangle_645" data-name="Rectangle 645" width="74.698" height="6.226" transform="translate(1444.959 567.794)" fill="#071b2a"/>
    <rect id="Rectangle_646" data-name="Rectangle 646" width="74.698" height="6.226" transform="translate(1444.959 581.003)" fill="#071b2a"/>
    <rect id="Rectangle_647" data-name="Rectangle 647" width="32.784" height="6.226" transform="translate(1444.959 593.377)" fill="#071b2a"/>
    <rect id="Rectangle_648" data-name="Rectangle 648" width="74.698" height="6.226" transform="translate(1528.73 567.794)" fill="#071b2a"/>
    <rect id="Rectangle_649" data-name="Rectangle 649" width="74.698" height="6.226" transform="translate(1528.73 581.003)" fill="#071b2a"/>
    <rect id="Rectangle_650" data-name="Rectangle 650" width="32.784" height="6.226" transform="translate(1528.73 593.377)" fill="#071b2a"/>
    <g id="Group_200" data-name="Group 200" transform="translate(1361.188 513.484)">
      <path id="Path_79" data-name="Path 79" d="M0,0H74.7V10.129H0Z" transform="translate(0 0)" fill="#dc3545"/>
      <rect id="Rectangle_303" data-name="Rectangle 303" width="44.455" height="1.125" transform="translate(12.38 4.597)" fill="#fff"/>
      <path id="Polygon_1" data-name="Polygon 1" d="M1.688,0,3.376,3.376H0Z" transform="translate(4.485 3.361)" fill="#ff9e02"/>
      <path id="Path_144" data-name="Path 144" d="M3.219-4.548l-.785.785.785.785-.2.2-.785-.785-.785.785-.2-.2.785-.785-.785-.785.2-.2.785.785.785-.785Z" transform="translate(69.662 6.483)" fill="#fff"/>
    </g>
    <line id="Line_163" data-name="Line 163" x2="259.488" transform="translate(1351.346 458.117)" fill="none" stroke="#e0dfdf" stroke-width="0.342"/>
    <g id="Group_70" data-name="Group 70" transform="translate(1279.878 397)">
      <path id="Path_164" data-name="Path 164" d="M0,0H330.766V12.356H0Z" transform="translate(0.191 18.817)" fill="#3f7386"/>
      <g id="Group_63" data-name="Group 63" transform="translate(0.191 0)">
        <path id="Path_65" data-name="Path 65" d="M336.356,12.769H14.315a4.328,4.328,0,0,0-4.362,4.268V31.885H340.719V17.037A4.329,4.329,0,0,0,336.356,12.769Z" transform="translate(-9.953 -12.769)" fill="#484848"/>
        <path id="Path_66" data-name="Path 66" d="M25.776,25.383a3.068,3.068,0,1,1-3.068-3.068A3.068,3.068,0,0,1,25.776,25.383Z" transform="translate(-12.954 -15.726)" fill="#0a1516"/>
        <path id="Path_67" data-name="Path 67" d="M25.516,25.595a2.6,2.6,0,1,1-2.6-2.6A2.6,2.6,0,0,1,25.516,25.595Z" transform="translate(-13.166 -15.938)" fill="#fbfbfb"/>
        <path id="Path_68" data-name="Path 68" d="M25.256,25.807a2.124,2.124,0,1,1-2.124-2.124A2.124,2.124,0,0,1,25.256,25.807Z" transform="translate(-13.377 -16.15)" fill="#ed412f"/>
        <path id="Path_69" data-name="Path 69" d="M38.455,25.383a3.068,3.068,0,1,1-3.067-3.068A3.068,3.068,0,0,1,38.455,25.383Z" transform="translate(-16.881 -15.726)" fill="#0a1516"/>
        <path id="Path_70" data-name="Path 70" d="M38.195,25.595A2.6,2.6,0,1,1,35.6,23,2.6,2.6,0,0,1,38.195,25.595Z" transform="translate(-17.093 -15.938)" fill="#fbfbfb"/>
        <path id="Path_71" data-name="Path 71" d="M37.935,25.807a2.124,2.124,0,1,1-2.124-2.124A2.124,2.124,0,0,1,37.935,25.807Z" transform="translate(-17.305 -16.15)" fill="#ffa310"/>
        <path id="Path_72" data-name="Path 72" d="M51.134,25.383a3.068,3.068,0,1,1-3.068-3.068A3.068,3.068,0,0,1,51.134,25.383Z" transform="translate(-20.809 -15.726)" fill="#0a1516"/>
        <path id="Path_73" data-name="Path 73" d="M50.874,25.595a2.6,2.6,0,1,1-2.6-2.6A2.6,2.6,0,0,1,50.874,25.595Z" transform="translate(-21.021 -15.938)" fill="#fbfbfb"/>
        <path id="Path_74" data-name="Path 74" d="M50.614,25.807a2.124,2.124,0,1,1-2.125-2.124A2.124,2.124,0,0,1,50.614,25.807Z" transform="translate(-21.233 -16.15)" fill="#71dd2a"/>
        <path id="Path_75" data-name="Path 75" d="M478.734,22.054v3.28l-1.262-1.261-1.514,1.514-.756-.757,1.514-1.514-1.262-1.261Z" transform="translate(-153.707 -15.645)" fill="#fbfbfb"/>
        <path id="Path_76" data-name="Path 76" d="M473.593,27.951l-1.514,1.514,1.262,1.261h-3.28v-3.28l1.261,1.261,1.514-1.514Z" transform="translate(-152.115 -17.237)" fill="#fbfbfb"/>
      </g>
      <line id="Line_80" data-name="Line 80" x2="330.635" transform="translate(0.308 29.662)" fill="none"/>
      <path id="Path_148" data-name="Path 148" d="M0,0H71.407V181.345H3.581A3.536,3.536,0,0,1,0,177.857Z" transform="translate(0.308 31.173)" fill="#071b2a"/>
      <path id="Path_166" data-name="Path 166" d="M.055,0H71.461V12.522H6.081c-3.6.374-6.334-1.106-6.334-5.346Z" transform="translate(0.253 199.941)" fill="#80d9f1" opacity="0.46"/>
      <line id="Line_81" data-name="Line 81" x2="258.995" transform="translate(71.948 41.991)" fill="none"/>
      <g id="logo" transform="translate(5.357 22.425)">
        <path id="Path_77" data-name="Path 77" d="M23.471,50.77l.68.681-.68.68-.681-.68Zm1.835,1.379-1.835,1.835L21.636,52.15,19.8,53.984l-2.534-2.533L19.8,48.917l1.608,1.607L19.8,52.131l-.681-.68.908-.908-.228-.227-1.135,1.135L19.8,52.586l3.669-3.669,3.669,3.669.227-.227-1.834-1.835,1.607-1.607,2.534,2.534-.7.7L27.14,50.315l-.227.227,1.834,1.835L27.14,53.984Zm-.7-.7-1.135-1.135-1.135,1.135,1.135,1.135Z" transform="translate(-17.268 -48.917)" fill="#fff"/>
        <rect id="Rectangle_284" data-name="Rectangle 284" width="0.989" height="1.604" transform="translate(7.337 2.534) rotate(45)" fill="#fff"/>
        <rect id="Rectangle_285" data-name="Rectangle 285" width="0.989" height="1.604" transform="matrix(0.707, 0.707, -0.707, 0.707, 3.669, 2.534)" fill="#fff"/>
      </g>
      <rect id="Rectangle_296" data-name="Rectangle 296" width="26.919" height="2.071" transform="translate(157.795 23.155)" fill="#e9e9e9"/>
      <rect id="Rectangle_297" data-name="Rectangle 297" width="26.919" height="2.071" transform="translate(117.057 23.155)" fill="#e9e9e9"/>
      <rect id="Rectangle_298" data-name="Rectangle 298" width="26.919" height="2.071" transform="translate(76.32 23.155)" fill="#e9e9e9"/>
      <rect id="Rectangle_299" data-name="Rectangle 299" width="21.397" height="1.38" transform="translate(42.218 205.418)" fill="#fff"/>
      <rect id="Rectangle_300" data-name="Rectangle 300" width="21.397" height="1.38" transform="translate(8.712 205.418)" fill="#fff"/>
      <g id="Group_64" data-name="Group 64" transform="translate(63.109 34.564)">
        <line id="Line_83" data-name="Line 83" x2="5.069" transform="translate(0)" fill="none"/>
        <line id="Line_84" data-name="Line 84" x2="5.069" transform="translate(0 1.345)" fill="none"/>
        <line id="Line_85" data-name="Line 85" x2="5.069" transform="translate(0 2.689)" fill="none"/>
      </g>
      <rect id="Rectangle_662" data-name="Rectangle 662" width="4.141" height="4.141" transform="translate(6.468 38.176)" fill="#fff"/>
      <rect id="Rectangle_663" data-name="Rectangle 663" width="44.169" height="2.761" transform="translate(16.476 38.867)" fill="#fff"/>
      <rect id="Rectangle_664" data-name="Rectangle 664" width="4.141" height="4.141" transform="translate(6.468 47.015)" fill="#fff"/>
      <rect id="Rectangle_665" data-name="Rectangle 665" width="44.169" height="2.761" transform="translate(16.476 47.706)" fill="#fff"/>
      <rect id="Rectangle_666" data-name="Rectangle 666" width="4.141" height="4.141" transform="translate(6.468 55.854)" fill="#fff"/>
      <rect id="Rectangle_667" data-name="Rectangle 667" width="44.169" height="2.761" transform="translate(16.476 56.545)" fill="#fff"/>
      <rect id="Rectangle_668" data-name="Rectangle 668" width="4.141" height="4.141" transform="translate(6.468 64.694)" fill="#fff"/>
      <rect id="Rectangle_669" data-name="Rectangle 669" width="44.169" height="2.761" transform="translate(16.476 65.384)" fill="#fff"/>
      <rect id="Rectangle_670" data-name="Rectangle 670" width="4.141" height="4.141" transform="translate(6.468 73.533)" fill="#fff"/>
      <rect id="Rectangle_671" data-name="Rectangle 671" width="44.169" height="2.761" transform="translate(16.476 74.223)" fill="#fff"/>
    </g>
  </g>
</svg>
