<svg xmlns="http://www.w3.org/2000/svg" width="129" height="61" viewBox="0 0 129 61">
  <g id="logos-wrap-size" transform="translate(-124 -304)">
    <path id="Line_10" data-name="Line 10" d="M0,32V0" transform="translate(201.5 304.5)" fill="none" stroke="#00c081" stroke-width="1"/>
    <text id="_36px" data-name="36px" transform="translate(207 320)" fill="#141823" font-size="12" font-family="Lato-Regular, Lato"><tspan x="0" y="0">36px</tspan></text>
    <text id="_24px" data-name="24px" transform="translate(173 352)" fill="#141823" font-size="12" font-family="Lato-Regular, Lato"><tspan x="0" y="0">24px</tspan></text>
    <text id="_6px" data-name="6px" transform="translate(142 323)" fill="#141823" font-size="12" font-family="Lato-Regular, Lato"><tspan x="0" y="0">6px</tspan></text>
    <path id="Path_13" data-name="Path 13" d="M0,0H36V36H0Z" transform="translate(166 304)" fill="#141823"/>
    <path id="gitlab" d="M23.955,14.668,22.613,10.18,19.949,1.29a.445.445,0,0,0-.867,0l-2.664,8.887H7.582L4.919,1.29a.447.447,0,0,0-.869,0L1.386,10.18.044,14.668a1.053,1.053,0,0,0,.331,1.111L12,24.945,23.625,15.78a1.048,1.048,0,0,0,.33-1.112" transform="translate(172 309.055)" fill="#fff"/>
    <path id="Line_11" data-name="Line 11" d="M24,0H0" transform="translate(172 337)" fill="none" stroke="#00c081" stroke-width="1"/>
    <path id="Line_12" data-name="Line 12" d="M4,0H0" transform="translate(167 322)" fill="none" stroke="#00c081" stroke-width="1"/>
    <text id="wrapper" transform="translate(208 330)" fill="#141823" font-size="12" font-family="Lato-Regular, Lato"><tspan x="0" y="0">wrapper</tspan></text>
    <text id="logo" transform="translate(174 362)" fill="#141823" font-size="12" font-family="Lato-Regular, Lato"><tspan x="0" y="0">logo</tspan></text>
    <text id="margin" transform="translate(124 334)" fill="#141823" font-size="12" font-family="Lato-Regular, Lato"><tspan x="0" y="0">margin</tspan></text>
  </g>
</svg>
