<svg xmlns="http://www.w3.org/2000/svg" width="166.284" height="214.226" viewBox="0 0 166.284 214.226">
  <g id="_4_icon_sizes" data-name="4 icon sizes" transform="translate(-718.716 -1300.893)">
    <rect id="Rectangle_345" data-name="Rectangle 345" width="121" height="121" transform="translate(719 1344)" fill="#42ba85"/>
    <g id="_4_icon_sizes-2" data-name=" 4 icon sizes">
      <g id="_4_icon_sizes-2-2" data-name=" 4 icon sizes-2" style="isolation: isolate">
        <path id="Path_174" data-name="Path 174" d="M6.408-4.905V-9.162a12.143,12.143,0,0,1,.081-1.332L2.448-4.905Zm3.573,0v1.287a.45.45,0,0,1-.117.31.424.424,0,0,1-.333.131H8.343V0H6.408V-3.177H.918a.608.608,0,0,1-.4-.14.6.6,0,0,1-.216-.347L.072-4.788l6.165-8.235H8.343v8.118Zm8.235-4.329V0H15.984V-9.234Zm.306-2.691a1.267,1.267,0,0,1-.117.54,1.484,1.484,0,0,1-.311.441,1.484,1.484,0,0,1-.455.3,1.4,1.4,0,0,1-.558.113,1.341,1.341,0,0,1-.545-.113,1.442,1.442,0,0,1-.445-.3,1.458,1.458,0,0,1-.3-.441,1.309,1.309,0,0,1-.112-.54,1.4,1.4,0,0,1,.112-.558,1.428,1.428,0,0,1,.3-.45,1.442,1.442,0,0,1,.445-.3,1.341,1.341,0,0,1,.545-.113,1.4,1.4,0,0,1,.558.113,1.484,1.484,0,0,1,.455.3,1.452,1.452,0,0,1,.311.45A1.348,1.348,0,0,1,18.522-11.925ZM27.1-7.281a1.108,1.108,0,0,1-.194.2.447.447,0,0,1-.274.072.611.611,0,0,1-.333-.1q-.162-.1-.387-.234a2.893,2.893,0,0,0-.535-.234,2.461,2.461,0,0,0-.77-.1,2.347,2.347,0,0,0-1.026.211,1.945,1.945,0,0,0-.733.608,2.737,2.737,0,0,0-.437.959,5.147,5.147,0,0,0-.144,1.273,4.993,4.993,0,0,0,.158,1.314,2.809,2.809,0,0,0,.455.967,1.956,1.956,0,0,0,.72.594,2.182,2.182,0,0,0,.954.2,2.365,2.365,0,0,0,.859-.131,2.712,2.712,0,0,0,.554-.288q.225-.158.391-.288a.59.59,0,0,1,.374-.13.451.451,0,0,1,.405.207l.639.81a4.019,4.019,0,0,1-.8.725,4.33,4.33,0,0,1-.9.468,4.554,4.554,0,0,1-.954.248,6.716,6.716,0,0,1-.976.072,4.1,4.1,0,0,1-1.611-.319,3.805,3.805,0,0,1-1.323-.931,4.448,4.448,0,0,1-.9-1.5,5.79,5.79,0,0,1-.328-2.02,5.873,5.873,0,0,1,.292-1.886,4.271,4.271,0,0,1,.859-1.5,3.941,3.941,0,0,1,1.4-.994,4.837,4.837,0,0,1,1.926-.36,4.581,4.581,0,0,1,1.813.333,4.431,4.431,0,0,1,1.4.954Zm5.985-2.1a5.035,5.035,0,0,1,1.868.333,4.091,4.091,0,0,1,1.44.945,4.151,4.151,0,0,1,.923,1.494,5.683,5.683,0,0,1,.324,1.971,5.711,5.711,0,0,1-.324,1.98,4.242,4.242,0,0,1-.923,1.5,4.032,4.032,0,0,1-1.44.954,5.035,5.035,0,0,1-1.868.333A5.1,5.1,0,0,1,31.2-.2a4.024,4.024,0,0,1-1.444-.954,4.294,4.294,0,0,1-.927-1.5,5.64,5.64,0,0,1-.328-1.98,5.613,5.613,0,0,1,.328-1.971A4.2,4.2,0,0,1,29.758-8.1,4.083,4.083,0,0,1,31.2-9.045,5.1,5.1,0,0,1,33.084-9.378Zm0,7.8a1.955,1.955,0,0,0,1.706-.774,3.881,3.881,0,0,0,.553-2.268,3.925,3.925,0,0,0-.553-2.277,1.947,1.947,0,0,0-1.706-.783,1.985,1.985,0,0,0-1.733.787,3.88,3.88,0,0,0-.562,2.273,3.836,3.836,0,0,0,.563,2.264A1.994,1.994,0,0,0,33.084-1.575ZM41.418-8.1a6.014,6.014,0,0,1,.59-.518,3.725,3.725,0,0,1,.657-.405,3.682,3.682,0,0,1,.743-.261,3.72,3.72,0,0,1,.864-.095,3.31,3.31,0,0,1,1.341.257,2.65,2.65,0,0,1,.977.72,3.165,3.165,0,0,1,.594,1.107,4.7,4.7,0,0,1,.2,1.418V0H45.162V-5.877a1.988,1.988,0,0,0-.387-1.31A1.449,1.449,0,0,0,43.6-7.65a2.315,2.315,0,0,0-1.08.261,3.87,3.87,0,0,0-.954.711V0H39.339V-9.234H40.7a.546.546,0,0,1,.567.4ZM59.5-7.434a.593.593,0,0,1-.189.2.49.49,0,0,1-.252.059.794.794,0,0,1-.347-.09q-.185-.09-.428-.2a3.915,3.915,0,0,0-.553-.2A2.651,2.651,0,0,0,57-7.758a1.689,1.689,0,0,0-1.03.279.869.869,0,0,0-.374.729.7.7,0,0,0,.194.5,1.74,1.74,0,0,0,.513.356,5.021,5.021,0,0,0,.724.274q.405.121.823.265t.824.329a2.887,2.887,0,0,1,.725.468,2.174,2.174,0,0,1,.513.68,2.155,2.155,0,0,1,.194.954A3.115,3.115,0,0,1,59.863-1.7a2.654,2.654,0,0,1-.707.972A3.332,3.332,0,0,1,58-.085a5.021,5.021,0,0,1-1.589.23A5.028,5.028,0,0,1,55.48.058a5.5,5.5,0,0,1-.873-.238,4.831,4.831,0,0,1-.774-.36,3.756,3.756,0,0,1-.625-.45l.513-.846a.726.726,0,0,1,.234-.234.656.656,0,0,1,.342-.081.719.719,0,0,1,.392.117q.184.117.427.252a3.821,3.821,0,0,0,.572.252,2.515,2.515,0,0,0,.832.117,2.16,2.16,0,0,0,.68-.094,1.438,1.438,0,0,0,.468-.247.929.929,0,0,0,.27-.356,1.066,1.066,0,0,0,.085-.418.747.747,0,0,0-.194-.531,1.694,1.694,0,0,0-.513-.36,4.955,4.955,0,0,0-.729-.274q-.409-.122-.837-.266a7.743,7.743,0,0,1-.837-.338,2.853,2.853,0,0,1-.729-.49,2.22,2.22,0,0,1-.513-.729,2.544,2.544,0,0,1-.194-1.044,2.66,2.66,0,0,1,.225-1.08,2.533,2.533,0,0,1,.661-.9,3.285,3.285,0,0,1,1.089-.612,4.536,4.536,0,0,1,1.507-.229,4.615,4.615,0,0,1,1.737.315A3.923,3.923,0,0,1,60-8.235Zm4.581-1.8V0H61.848V-9.234Zm.306-2.691a1.267,1.267,0,0,1-.117.54,1.484,1.484,0,0,1-.311.441,1.484,1.484,0,0,1-.454.3,1.4,1.4,0,0,1-.558.113,1.341,1.341,0,0,1-.545-.113,1.442,1.442,0,0,1-.445-.3,1.458,1.458,0,0,1-.3-.441,1.309,1.309,0,0,1-.113-.54,1.4,1.4,0,0,1,.113-.558,1.428,1.428,0,0,1,.3-.45,1.442,1.442,0,0,1,.445-.3,1.341,1.341,0,0,1,.545-.113,1.4,1.4,0,0,1,.558.113,1.484,1.484,0,0,1,.454.3,1.452,1.452,0,0,1,.311.45A1.348,1.348,0,0,1,64.386-11.925Zm8.6,3.609a1.346,1.346,0,0,1-.081.459,1.053,1.053,0,0,1-.216.369L68.3-1.71h4.545V0H65.718V-.927a1.161,1.161,0,0,1,.072-.364,1.407,1.407,0,0,1,.216-.4l4.428-5.841H65.979v-1.7h7Zm7.425,2.637a2.675,2.675,0,0,0-.121-.814,1.936,1.936,0,0,0-.365-.671,1.7,1.7,0,0,0-.617-.454,2.116,2.116,0,0,0-.868-.167,2.059,2.059,0,0,0-1.516.549,2.692,2.692,0,0,0-.707,1.557ZM76.167-4.338a4.375,4.375,0,0,0,.252,1.228,2.513,2.513,0,0,0,.522.855,2.044,2.044,0,0,0,.77.5,2.8,2.8,0,0,0,.985.166,3.055,3.055,0,0,0,.932-.126,4.368,4.368,0,0,0,.684-.279q.292-.153.513-.279a.861.861,0,0,1,.427-.126.46.46,0,0,1,.414.207l.639.81a3.7,3.7,0,0,1-.828.725,4.644,4.644,0,0,1-.959.468A5.239,5.239,0,0,1,79.5.063a7.282,7.282,0,0,1-1,.072,4.933,4.933,0,0,1-1.791-.319,4.009,4.009,0,0,1-1.44-.945A4.434,4.434,0,0,1,74.3-2.678a5.991,5.991,0,0,1-.351-2.137,5.111,5.111,0,0,1,.306-1.778,4.274,4.274,0,0,1,.877-1.449,4.131,4.131,0,0,1,1.4-.976,4.6,4.6,0,0,1,1.858-.36A4.52,4.52,0,0,1,80-9.1a3.51,3.51,0,0,1,1.269.814A3.773,3.773,0,0,1,82.1-6.97a4.9,4.9,0,0,1,.3,1.777,1.443,1.443,0,0,1-.108.68.447.447,0,0,1-.414.176ZM89.7-7.434a.593.593,0,0,1-.189.2.49.49,0,0,1-.252.059.794.794,0,0,1-.347-.09q-.184-.09-.427-.2a3.915,3.915,0,0,0-.553-.2,2.651,2.651,0,0,0-.733-.09,1.689,1.689,0,0,0-1.031.279.869.869,0,0,0-.374.729.7.7,0,0,0,.194.5,1.74,1.74,0,0,0,.513.356,5.021,5.021,0,0,0,.724.274q.405.121.824.265t.824.329a2.887,2.887,0,0,1,.725.468,2.174,2.174,0,0,1,.513.68,2.155,2.155,0,0,1,.193.954A3.115,3.115,0,0,1,90.067-1.7a2.654,2.654,0,0,1-.706.972A3.332,3.332,0,0,1,88.2-.085a5.021,5.021,0,0,1-1.589.23,5.028,5.028,0,0,1-.931-.086,5.5,5.5,0,0,1-.873-.238,4.831,4.831,0,0,1-.774-.36,3.757,3.757,0,0,1-.625-.45l.513-.846a.726.726,0,0,1,.234-.234.656.656,0,0,1,.342-.081.719.719,0,0,1,.392.117q.185.117.427.252a3.821,3.821,0,0,0,.572.252,2.515,2.515,0,0,0,.832.117,2.16,2.16,0,0,0,.68-.094,1.438,1.438,0,0,0,.468-.247.929.929,0,0,0,.27-.356,1.066,1.066,0,0,0,.085-.418.747.747,0,0,0-.193-.531,1.694,1.694,0,0,0-.513-.36,4.954,4.954,0,0,0-.729-.274q-.41-.122-.837-.266a7.743,7.743,0,0,1-.837-.338,2.853,2.853,0,0,1-.729-.49,2.22,2.22,0,0,1-.513-.729,2.544,2.544,0,0,1-.194-1.044,2.66,2.66,0,0,1,.225-1.08,2.533,2.533,0,0,1,.662-.9,3.285,3.285,0,0,1,1.089-.612,4.536,4.536,0,0,1,1.507-.229,4.615,4.615,0,0,1,1.737.315,3.923,3.923,0,0,1,1.305.828Z" transform="translate(736.259 1514.975)" fill="#141823"/>
      </g>
    </g>
    <g id="Group_224" data-name="Group 224">
      <path id="Path_173" data-name="Path 173" d="M23.906-10H9.375L6.641,0h20Zm2.734-3.359L30,0a3.381,3.381,0,0,1-1.055,2.227,3.811,3.811,0,0,1-2.3,1.133h-20A3.754,3.754,0,0,1,4.414,2.227,3.381,3.381,0,0,1,3.359,0L6.641-13.359Zm6.719-5V-15H0v-3.359ZM14.453-21.172a1.543,1.543,0,0,0-1.133-.469,1.676,1.676,0,0,0-1.172.469A1.529,1.529,0,0,0,11.641-20H8.359a8.478,8.478,0,0,1,1.406-2.969,8.333,8.333,0,0,1,2.344-2.344,10.827,10.827,0,0,1-.469-3.125v-.156a9.913,9.913,0,0,1,.508-3.359q.508-1.406,1.211-1.406t1.172,1.406A10.672,10.672,0,0,1,15-28.594a10.413,10.413,0,0,1-.234,2.188,7.705,7.705,0,0,1,1.875-.234,7.705,7.705,0,0,1,1.875.234,15.449,15.449,0,0,1-.156-2.187,10.672,10.672,0,0,1,.469-3.359Q19.3-33.359,20-33.359t1.172,1.406a10.672,10.672,0,0,1,.469,3.359v.156a10.827,10.827,0,0,1-.469,3.125,8.777,8.777,0,0,1,2.383,2.344A8.184,8.184,0,0,1,25-20H21.641a1.59,1.59,0,0,0-.469-1.172A1.59,1.59,0,0,0,20-21.641a1.59,1.59,0,0,0-1.172.469A1.59,1.59,0,0,0,18.359-20H15A1.48,1.48,0,0,0,14.453-21.172Z" transform="translate(740.259 1427.893)" fill="#fff"/>
      <path id="Path_172" data-name="Path 172" d="M32.871-13.75H12.891L9.131,0h27.5Zm3.76-4.619L41.25,0A4.648,4.648,0,0,1,39.8,3.062a5.24,5.24,0,0,1-3.169,1.558H9.131A5.161,5.161,0,0,1,6.069,3.062,4.648,4.648,0,0,1,4.619,0L9.131-18.369Zm9.238-6.875v4.619H0v-4.619Zm-26-3.867a2.122,2.122,0,0,0-1.558-.645,2.3,2.3,0,0,0-1.611.645,2.1,2.1,0,0,0-.7,1.611H11.494a11.657,11.657,0,0,1,1.934-4.082A11.458,11.458,0,0,1,16.65-34.8a14.887,14.887,0,0,1-.645-4.3v-.215a13.63,13.63,0,0,1,.7-4.619q.7-1.934,1.665-1.934t1.611,1.934a14.674,14.674,0,0,1,.645,4.619,14.318,14.318,0,0,1-.322,3.008,10.594,10.594,0,0,1,2.578-.322,10.594,10.594,0,0,1,2.578.322,21.243,21.243,0,0,1-.215-3.008,14.674,14.674,0,0,1,.645-4.619q.645-1.934,1.611-1.934t1.611,1.934a14.674,14.674,0,0,1,.645,4.619v.215a14.887,14.887,0,0,1-.645,4.3,12.069,12.069,0,0,1,3.276,3.223A11.253,11.253,0,0,1,34.375-27.5H29.756a2.186,2.186,0,0,0-.645-1.611,2.186,2.186,0,0,0-1.611-.645,2.186,2.186,0,0,0-1.611.645,2.186,2.186,0,0,0-.645,1.611H20.625A2.036,2.036,0,0,0,19.873-29.111Z" transform="translate(778.259 1427.893)" fill="#fff"/>
    </g>
    <rect id="Rectangle_2334" data-name="Rectangle 2334" width="166" height="3.98" transform="translate(719 1340.02)" fill="#fe7c3f"/>
    <rect id="Rectangle_2334-2" data-name="Rectangle 2334" width="55.284" height="3.98" transform="translate(718.716 1340.02)" fill="#99d4c0"/>
    <g id="Group_225" data-name="Group 225" transform="translate(88 -62.448)">
      <rect id="Rectangle_348" data-name="Rectangle 348" width="70" height="70" transform="translate(727 1363.341)" fill="#f2f2f2"/>
      <path id="Path_171" data-name="Path 171" d="M11.355-4.75h-6.9L3.154,0h9.5Zm1.3-1.6L14.25,0a1.606,1.606,0,0,1-.5,1.058,1.81,1.81,0,0,1-1.095.538h-9.5A1.783,1.783,0,0,1,2.1,1.058,1.606,1.606,0,0,1,1.6,0L3.154-6.346Zm3.191-2.375v1.6H0v-1.6Zm-8.98-1.336a.733.733,0,0,0-.538-.223.8.8,0,0,0-.557.223.726.726,0,0,0-.241.557H3.971a4.027,4.027,0,0,1,.668-1.41,3.958,3.958,0,0,1,1.113-1.113,5.143,5.143,0,0,1-.223-1.484v-.074a4.709,4.709,0,0,1,.241-1.6q.241-.668.575-.668t.557.668a5.069,5.069,0,0,1,.223,1.6,4.946,4.946,0,0,1-.111,1.039,3.66,3.66,0,0,1,.891-.111,3.66,3.66,0,0,1,.891.111,7.338,7.338,0,0,1-.074-1.039,5.069,5.069,0,0,1,.223-1.6q.223-.668.557-.668t.557.668a5.069,5.069,0,0,1,.223,1.6v.074a5.143,5.143,0,0,1-.223,1.484,4.169,4.169,0,0,1,1.132,1.113,3.888,3.888,0,0,1,.687,1.41h-1.6a.755.755,0,0,0-.223-.557.755.755,0,0,0-.557-.223.755.755,0,0,0-.557.223.755.755,0,0,0-.223.557h-1.6A.7.7,0,0,0,6.865-10.057Z" transform="translate(742.259 1408.341)" fill="#141823"/>
      <path id="Path_170" data-name="Path 170" d="M16.137-6.75H6.328L4.482,0h13.5Zm1.846-2.268L20.25,0a2.282,2.282,0,0,1-.712,1.5,2.572,2.572,0,0,1-1.556.765H4.482a2.534,2.534,0,0,1-1.5-.765A2.282,2.282,0,0,1,2.268,0L4.482-9.018Zm4.535-3.375v2.268H0v-2.268Zm-12.762-1.9a1.042,1.042,0,0,0-.765-.316,1.131,1.131,0,0,0-.791.316,1.032,1.032,0,0,0-.343.791H5.643a5.723,5.723,0,0,1,.949-2,5.625,5.625,0,0,1,1.582-1.582A7.308,7.308,0,0,1,7.857-19.2V-19.3A6.691,6.691,0,0,1,8.2-21.568q.343-.949.817-.949t.791.949a7.2,7.2,0,0,1,.316,2.268,7.029,7.029,0,0,1-.158,1.477,5.2,5.2,0,0,1,1.266-.158,5.2,5.2,0,0,1,1.266.158,10.428,10.428,0,0,1-.105-1.477,7.2,7.2,0,0,1,.316-2.268q.316-.949.791-.949t.791.949a7.2,7.2,0,0,1,.316,2.268v.105a7.308,7.308,0,0,1-.316,2.109A5.925,5.925,0,0,1,15.9-15.5a5.524,5.524,0,0,1,.976,2H14.607a1.073,1.073,0,0,0-.316-.791,1.073,1.073,0,0,0-.791-.316,1.073,1.073,0,0,0-.791.316,1.073,1.073,0,0,0-.316.791H10.125A1,1,0,0,0,9.756-14.291Z" transform="translate(765.259 1408.341)" fill="#141823"/>
    </g>
  </g>
</svg>
