[
  {
    "name": "English",
    "months": [
      "Jan",
      "Feb",
      "Mar",
      "Apr",
      "May",
      "June",
      "July",
      "Aug",
      "Sept",
      "Oct",
      "Nov",
      "Dec"
    ]
  },
  {
    "name": "Belorussian",
    "months": [
      "студ",
      "Лют",
      "Сак",
      "Крас",
      "Май",
      "Чэрв",
      "Ліп",
      "Жнівень",
      "Верас",
      "Кастр",
      "Ліст",
      "Снеж"
    ]
  },
  {
    "name": "Bulgarian",
    "months": [
      "ян",
      "февр",
      "март",
      "април",
      "май",
      "юни",
      "юли",
      "авг",
      "септ",
      "окт",
      "ноем",
      "дек"
    ]
  },
  {
    "name": "Czech",
    "months": [
      "Led",
      "Ún",
      "Břez",
      "Dub",
      "Květ",
      "Červ",
      "Červen",
      "Srp",
      "Září",
      "Říj",
      "List",
      "Pros"
    ]
  },
  {
    "name": "Croatian",
    "months": [
      "Siječ",
      "Velj",
      "Ožuj",
      "Trav",
      "Svib",
      "Lip",
      "Srp",
      "Kol",
      "Ruj",
      "List",
      "Stud",
      "Pros"
    ]
  },
  {
    "name": "Danish",
    "months": [
      "Jan",
      "Febr",
      "Marts",
      "April",
      "Maj",
      "Juni",
      "Juli",
      "Aug",
      "Sept",
      "Okt",
      "Nov",
      "Dec"
    ]
  },
  {
    "name": "Dutch",
    "months": [
      "Jan",
      "Feb",
      "Maart",
      "Apr",
      "Mei",
      "Juni",
      "Juli",
      "Aug",
      "Sept",
      "Oct",
      "Nov",
      "Dec"
    ]
  },
  {
    "name": "Estonian",
    "months": [
      "Jaan",
      "Veebr",
      "Märts",
      "Apr",
      "Mai",
      "Juuni",
      "Juuli",
      "Aug",
      "Sept",
      "Okt",
      "Nov",
      "Dets"
    ]
  },
  {
    "name": "French",
    "months": [
      "Janv",
      "Févr",
      "Mars",
      "Avril",
      "Mai",
      "Juin",
      "Juil",
      "Août",
      "Sept",
      "Oct",
      "Nov",
      "Déc"
    ]
  },
  {
    "name": "German",
    "months": [
      "Jän",
      "Feb",
      "März",
      "Apr",
      "Mai",
      "Juni",
      "Juli",
      "Aug",
      "Sept",
      "Okt",
      "Nov",
      "Dez"
    ]
  },
  {
    "name": "Greek, modern",
    "months": [
      "Ian",
      "Febr",
      "Mart",
      "Apr",
      "Maios",
      "Ioun",
      "Ioul",
      "Aug",
      "Sept",
      "Okt",
      "Noem",
      "Dek"
    ]
  },
  {
    "name": "Hungarian",
    "months": [
      "Jan",
      "Feb",
      "Márc",
      "Ápr",
      "Máj",
      "Jún",
      "Júl",
      "Aug",
      "Szept",
      "Okt",
      "Nov",
      "Dec"
    ]
  },
  {
    "name": "Indonesian",
    "months": [
      "Jan (Djan)",
      "Peb",
      "Mrt",
      "Apr",
      "Mei (Mai)",
      "Juni (Djuni)",
      "Juli (Djuli)",
      "Ag",
      "Sept",
      "Okt",
      "Nop",
      "Des"
    ]
  },
  {
    "name": "Italian",
    "months": [
      "Genn",
      "Febbr",
      "Mar",
      "Apr",
      "Magg",
      "Giugno",
      "Luglio",
      "Ag",
      "Sett",
      "Ott",
      "Nov",
      "Dic"
    ]
  },
  {
    "name": "Latin",
    "months": [
      "Ian",
      "Febr",
      "Mart",
      "Apr",
      "Mai",
      "Iun",
      "Iul",
      "Aug",
      "Sept",
      "Oct",
      "Nov",
      "Dec"
    ]
  },
  {
    "name": "Latvian",
    "months": [
      "Jan",
      "Feb",
      "Marts",
      "Apr",
      "Maijs",
      "Unijs",
      "Julijs",
      "Aug",
      "Sept",
      "Okt",
      "Nov",
      "Dec"
    ]
  },
  {
    "name": "Lithuanian",
    "months": [
      "Saus",
      "Vas",
      "Kovas",
      "Bal",
      "Geg",
      "Birž",
      "Liepa",
      "Rugp",
      "Rugs",
      "Spalis",
      "Lapkr",
      "Gr"
    ]
  },
  {
    "name": "Malaysian",
    "months": [
      "Jan",
      "Feb",
      "Mac",
      "Apr",
      "Mei",
      "Jun",
      "Julai",
      "Og",
      "Sept",
      "Okt",
      "Nov",
      "Dis"
    ]
  },
  {
    "name": "Norwegian",
    "months": [
      "Jan",
      "Febr",
      "Mars",
      "April",
      "Mai",
      "Juni",
      "Juli",
      "Aug",
      "Sept",
      "Okt",
      "Nov",
      "Des"
    ]
  },
  {
    "name": "Polish",
    "months": [
      "Stycz",
      "Luty",
      "Mar",
      "Kwiec",
      "Maj",
      "Czerw",
      "Lip",
      "Sierp",
      "Wrzes",
      "Paødz",
      "Listop",
      "Grudz"
    ]
  },
  {
    "name": "Portuguese",
    "months": [
      "Jan",
      "Fev",
      "Março",
      "Abril",
      "Maio",
      "Junho",
      "Julho",
      "Agosto",
      "Set",
      "Out",
      "Nov",
      "Dez"
    ]
  },
  {
    "name": "Romanian",
    "months": [
      "Ian",
      "Feb",
      "Mar",
      "Apr",
      "Mai",
      "Iunie",
      "Iulie",
      "Aug",
      "Sept",
      "Oct",
      "Noem",
      "Dec"
    ]
  },
  {
    "name": "Russian",
    "months": [
      "Янв",
      "Февр",
      "Март (марть)",
      "Апр",
      "Май",
      "Июнь (іюнь)",
      "Июль (іюль)",
      "Авг",
      "Сент",
      "Окт",
      "Ноябрь",
      "Дек"
    ]
  },
  {
    "name": "Serbian",
    "months": [
      "Јан",
      "Феб",
      "Мар",
      "Aпр",
      "Мај",
      "Јуни",
      "Јули",
      "Ауг",
      "Септ",
      "Окт",
      "Нов",
      "Дец"
    ]
  },
  {
    "name": "Slovak",
    "months": [
      "L’ad",
      "Ún",
      "Brez",
      "Dub",
      "Kvet",
      "Červ",
      "Červen",
      "Srp",
      "Zári",
      "Ruj",
      "List",
      "Pros"
    ]
  },
  {
    "name": "Slovenian",
    "months": [
      "Jan",
      "Feb",
      "Mar",
      "Apr",
      "Maj",
      "Jun",
      "Iul",
      "Avg",
      "Sept",
      "Okt",
      "Nov",
      "Dec"
    ]
  },
  {
    "name": "Spanish",
    "months": [
      "Enero",
      "Feb",
      "Marzo",
      "Abr",
      "Mayo",
      "Jun",
      "Jul",
      "Agosto",
      "Sept (Set)",
      "Oct",
      "Nov",
      "Dic"
    ]
  },
  {
    "name": "Swedish",
    "months": [
      "Jan",
      "Febr",
      "Mars",
      "April",
      "Maj",
      "Juni",
      "Juli",
      "Aug",
      "Sept",
      "Okt",
      "Nov",
      "Dec"
    ]
  },
  {
    "name": "Ukrainian",
    "months": [
      "січ",
      "лют",
      "бер",
      "квіт",
      "трав",
      "чер",
      "лип",
      "серп",
      "вер",
      "жовт",
      "лист",
      "груд"
    ]
  }
]
